{
  "opts": {
      "template": "node_modules/jsdoc-chameleon-template",
      "encoding": "utf8",
      "destination": "docs/",
      "recurse": true
  },
  "source": {
    "exclude": ["./modules/music/play-dl/"]
  },
  "template": {
    "title": "Notre bot sur Discord",
    "shortTitle": "BLG",
    "logo": "https://gitlab.com/DENECHERE_Killian/BLG/-/raw/master/modules/werewolf/role_pictures/Verso.png",
    "links": [
      {"github": "https://gitlab.com/DENECHERE_Killian/BLG", "title": "View it on GitLab"}
    ],
    "scheme": "4",
    "disableSort": false,
    "font": {
      "titleFont": "Righteous",
      "textFont": "Raleway",
      "codeFont": "Share Tech Mono"
    }
  },
  "styleSwitcher": false,
  "colors": [
    {
      "text": {
        "primary": "#dcdcdc",
        "contrast": "#f78200"
      },
      "background": {
        "primary": "#282c34",
        "contrast": "#1d2027"
      }
    },
    {
      "text": {
        "primary": "#dcdcdc",
        "contrast": "#5ebd3e"
      },
      "background": {
        "primary": "#282c34",
        "contrast": "#1d2027"
      }
    },
    {
      "text": {
        "primary": "#dcdcdc",
        "contrast": "#ffb900"
      },
      "background": {
        "primary": "#282c34",
        "contrast": "#1d2027"
      }
    },
    {
      "text": {
        "primary": "#dcdcdc",
        "contrast": "#e23838"
      },
      "background": {
        "primary": "#282c34",
        "contrast": "#1d2027"
      }
    },
    {
      "text": {
        "primary": "#dcdcdc",
        "contrast": "#009cdf"
      },
      "background": {
        "primary": "#282c34",
        "contrast": "#1d2027"
      }
    }
  ],
  "fonts": {
    "text": "Alegreya+Sans|Alfa+Slab+One|Bangers|Bungee|Changa+One|Exo|Fira+Sans|Heebo|IBM+Plex+Sans|Lalezar|Lato|Open+Sans|Oswald|PT+Sans|Passion+One|Patua+One|Questrial|Raleway|Righteous|Roboto|Rubik|Source+Sans+Pro|Squada+One|Titillium+Web|Voces",
    "code": "Cousine|Cutive+Mono|IBM+Plex+Mono|Inconsolata|Nanum+Gothic+Coding|Oxygen+Mono|PT+Mono|Share+Tech+Mono|Source+Code+Pro|Ubuntu+Mono|VT323"
  }
}
