{
    "activated": true,
    "picture": "/icons/commands/bug_report.svg",
    "name": "bug report",
    "commands": {
        "name": "br",
        "description": "Commandes pour le module Bug report."
    },
    "file": "./modules/bugreport/commands.json"
}